EESchema Schematic File Version 4
LIBS:sterilizer_proto_Rev1-cache
EELAYER 30 0
EELAYER END
$Descr A4 11693 8268
encoding utf-8
Sheet 1 1
Title "Wireless Powerlizer: UV-C Sterilizer Prototype"
Date "2021-06-01"
Rev "1"
Comp "TU Delft"
Comment1 ""
Comment2 ""
Comment3 ""
Comment4 ""
$EndDescr
$Comp
L LT3599:LT3599EFE-PBF U1
U 1 1 60A3E32C
P 3700 2050
F 0 "U1" H 4700 450 60  0000 C CNN
F 1 "LT3599EFE-PBF" H 4700 350 60  0000 C CNN
F 2 "footprints:LT3599EFE-PBF" H 4700 590 60  0001 C CNN
F 3 "~" H 3400 1850 60  0000 C CNN
F 4 "~" H 3700 2050 50  0001 C CNN "Farnell Nr."
F 5 "~" H 3700 2050 50  0001 C CNN "MOQ"
F 6 "~" H 3700 2050 50  0001 C CNN "Ordercode"
	1    3700 2050
	1    0    0    -1  
$EndComp
$Comp
L Device:R R7
U 1 1 60A55E62
P 7850 5350
F 0 "R7" H 7920 5396 50  0000 L CNN
F 1 "27.4K" H 7920 5305 50  0000 L CNN
F 2 "Resistor_SMD:R_0603_1608Metric" V 7780 5350 50  0001 C CNN
F 3 "~" H 7850 5350 50  0001 C CNN
F 4 "RC0603FR-0727K4L" H 7850 5350 50  0001 C CNN "Farnell Nr."
F 5 "10" H 7850 5350 50  0001 C CNN "MOQ"
F 6 "3495788 " H 7850 5350 50  0001 C CNN "Ordercode"
	1    7850 5350
	1    0    0    -1  
$EndComp
$Comp
L Device:R R6
U 1 1 60A56329
P 7850 4850
F 0 "R6" H 7920 4896 50  0000 L CNN
F 1 "200K" H 7920 4805 50  0000 L CNN
F 2 "Resistor_SMD:R_0603_1608Metric" V 7780 4850 50  0001 C CNN
F 3 "~" H 7850 4850 50  0001 C CNN
F 4 "RC0603FR-07200KL" H 7850 4850 50  0001 C CNN "Farnell Nr."
F 5 "10" H 7850 4850 50  0001 C CNN "MOQ"
F 6 "3495762 " H 7850 4850 50  0001 C CNN "Ordercode"
	1    7850 4850
	1    0    0    -1  
$EndComp
Wire Wire Line
	3300 2250 3400 2250
$Comp
L power:GND #PWR08
U 1 1 60A5A83B
P 4600 4950
F 0 "#PWR08" H 4600 4700 50  0001 C CNN
F 1 "GND" H 4605 4777 50  0000 C CNN
F 2 "" H 4600 4950 50  0001 C CNN
F 3 "" H 4600 4950 50  0001 C CNN
	1    4600 4950
	1    0    0    -1  
$EndComp
Wire Wire Line
	4600 4850 4600 4900
Wire Wire Line
	4600 4900 4800 4900
Wire Wire Line
	4800 4900 4800 4850
Connection ~ 4600 4900
Wire Wire Line
	4600 4900 4600 4950
Wire Wire Line
	4200 1550 3300 1550
Wire Wire Line
	3300 1550 3300 2250
Wire Wire Line
	4500 1550 4700 1550
Wire Wire Line
	4700 1550 4700 1750
$Comp
L Device:D_Schottky D1
U 1 1 60A5CD1D
P 5050 1550
F 0 "D1" H 5050 1450 50  0000 C CNN
F 1 "PMEG6010CEH" H 5050 1650 50  0000 C CNN
F 2 "Diode_SMD:D_SOD-123F" H 5050 1550 50  0001 C CNN
F 3 "~" H 5050 1550 50  0001 C CNN
F 4 "PMEG6010CEH,115" H 5050 1550 50  0001 C CNN "Farnell Nr."
F 5 "5" H 5050 1550 50  0001 C CNN "MOQ"
F 6 "1510694" H 5050 1550 50  0001 C CNN "Ordercode"
	1    5050 1550
	-1   0    0    1   
$EndComp
Wire Wire Line
	4900 1550 4700 1550
Connection ~ 4700 1550
Wire Wire Line
	6000 2250 6100 2250
Wire Wire Line
	6100 2250 6100 1550
Wire Wire Line
	6100 1550 5200 1550
Text GLabel 8000 5100 2    50   Input ~ 0
UVLO
Wire Wire Line
	8000 5100 7850 5100
Connection ~ 7850 5100
Wire Wire Line
	7850 5100 7850 5200
$Comp
L power:GND #PWR011
U 1 1 60A607AE
P 7850 5600
F 0 "#PWR011" H 7850 5350 50  0001 C CNN
F 1 "GND" H 7855 5427 50  0000 C CNN
F 2 "" H 7850 5600 50  0001 C CNN
F 3 "" H 7850 5600 50  0001 C CNN
	1    7850 5600
	1    0    0    -1  
$EndComp
Wire Wire Line
	7850 5500 7850 5600
Text GLabel 3200 2900 0    50   Input ~ 0
UVLO
Wire Wire Line
	3200 2900 3400 2900
Text GLabel 7850 4600 1    50   Input ~ 0
VIN
Wire Wire Line
	7850 4600 7850 4700
Wire Wire Line
	6000 4150 6100 4150
Wire Wire Line
	6100 4150 6100 4350
Wire Wire Line
	6100 4350 6000 4350
$Comp
L power:GND #PWR09
U 1 1 60A629E5
P 6100 4450
F 0 "#PWR09" H 6100 4200 50  0001 C CNN
F 1 "GND" H 6105 4277 50  0000 C CNN
F 2 "" H 6100 4450 50  0001 C CNN
F 3 "" H 6100 4450 50  0001 C CNN
	1    6100 4450
	1    0    0    -1  
$EndComp
Wire Wire Line
	6100 4450 6100 4350
Connection ~ 6100 4350
Text GLabel 3200 3150 0    50   Input ~ 0
VREF
Wire Wire Line
	3400 3150 3200 3150
Text GLabel 6100 3950 2    50   Input ~ 0
VREF
Wire Wire Line
	6100 3950 6000 3950
$Comp
L Device:C C6
U 1 1 60A65133
P 6600 1850
F 0 "C6" H 6715 1896 50  0000 L CNN
F 1 "10uF" H 6715 1805 50  0000 L CNN
F 2 "Capacitor_SMD:C_1210_3225Metric" H 6638 1700 50  0001 C CNN
F 3 "~" H 6600 1850 50  0001 C CNN
F 4 "C3225X7R1N106K250AC" H 6600 1850 50  0001 C CNN "Farnell Nr."
F 5 "1" H 6600 1850 50  0001 C CNN "MOQ"
F 6 "3416259" H 6600 1850 50  0001 C CNN "Ordercode"
	1    6600 1850
	1    0    0    -1  
$EndComp
$Comp
L Device:C C2
U 1 1 60A653EB
P 1800 1850
F 0 "C2" H 1915 1896 50  0000 L CNN
F 1 "100nF" H 1915 1805 50  0000 L CNN
F 2 "Capacitor_SMD:C_0603_1608Metric" H 1838 1700 50  0001 C CNN
F 3 "~" H 1800 1850 50  0001 C CNN
F 4 "C1608X5R1E224K080AA" H 1800 1850 50  0001 C CNN "Farnell Nr."
F 5 "10" H 1800 1850 50  0001 C CNN "MOQ"
F 6 "2526246" H 1800 1850 50  0001 C CNN "Ordercode"
	1    1800 1850
	1    0    0    -1  
$EndComp
Wire Wire Line
	1800 1700 1800 1550
$Comp
L Device:C C1
U 1 1 60A65C9F
P 1350 1850
F 0 "C1" H 1465 1896 50  0000 L CNN
F 1 "10uF" H 1465 1805 50  0000 L CNN
F 2 "Capacitor_SMD:C_0805_2012Metric" H 1388 1700 50  0001 C CNN
F 3 "~" H 1350 1850 50  0001 C CNN
F 4 "C2012X7S1E106K125AC" H 1350 1850 50  0001 C CNN "Farnell Nr."
F 5 "5" H 1350 1850 50  0001 C CNN "MOQ"
F 6 "3416196" H 1350 1850 50  0001 C CNN "Ordercode"
	1    1350 1850
	1    0    0    -1  
$EndComp
Wire Wire Line
	1350 1700 1350 1550
$Comp
L power:GND #PWR01
U 1 1 60A66696
P 1350 2100
F 0 "#PWR01" H 1350 1850 50  0001 C CNN
F 1 "GND" H 1355 1927 50  0000 C CNN
F 2 "" H 1350 2100 50  0001 C CNN
F 3 "" H 1350 2100 50  0001 C CNN
	1    1350 2100
	1    0    0    -1  
$EndComp
$Comp
L power:GND #PWR03
U 1 1 60A66C9D
P 1800 2100
F 0 "#PWR03" H 1800 1850 50  0001 C CNN
F 1 "GND" H 1805 1927 50  0000 C CNN
F 2 "" H 1800 2100 50  0001 C CNN
F 3 "" H 1800 2100 50  0001 C CNN
	1    1800 2100
	1    0    0    -1  
$EndComp
Wire Wire Line
	1800 2100 1800 2000
Wire Wire Line
	1350 2000 1350 2100
Wire Wire Line
	1350 1550 1800 1550
Connection ~ 1800 1550
Wire Wire Line
	6600 1700 6600 1550
Wire Wire Line
	6600 1550 6100 1550
Connection ~ 6100 1550
$Comp
L power:GND #PWR010
U 1 1 60A6A9EB
P 6600 2100
F 0 "#PWR010" H 6600 1850 50  0001 C CNN
F 1 "GND" H 6605 1927 50  0000 C CNN
F 2 "" H 6600 2100 50  0001 C CNN
F 3 "" H 6600 2100 50  0001 C CNN
	1    6600 2100
	1    0    0    -1  
$EndComp
Wire Wire Line
	6600 2100 6600 2000
Text GLabel 7750 3050 2    50   BiDi ~ 0
LED1
Text GLabel 7750 3250 2    50   BiDi ~ 0
LED2
Text GLabel 7750 3450 2    50   BiDi ~ 0
LED3
Text GLabel 7750 3650 2    50   BiDi ~ 0
LED4
Text GLabel 6100 2700 2    50   BiDi ~ 0
FB
Wire Wire Line
	6100 2700 6000 2700
Text GLabel 6100 2500 2    50   BiDi ~ 0
VO_SW
Wire Wire Line
	6100 2500 6000 2500
Text GLabel 6750 1550 2    50   Input ~ 0
VOUT
Wire Wire Line
	6750 1550 6600 1550
Connection ~ 6600 1550
$Comp
L Device:R R9
U 1 1 60A773F5
P 8700 5350
F 0 "R9" H 8770 5396 50  0000 L CNN
F 1 "30K" H 8770 5305 50  0000 L CNN
F 2 "Resistor_SMD:R_0603_1608Metric" V 8630 5350 50  0001 C CNN
F 3 "~" H 8700 5350 50  0001 C CNN
F 4 "RC0603FR-0730KL" H 8700 5350 50  0001 C CNN "Farnell Nr."
F 5 "10" H 8700 5350 50  0001 C CNN "MOQ"
F 6 "3495811" H 8700 5350 50  0001 C CNN "Ordercode"
	1    8700 5350
	1    0    0    -1  
$EndComp
$Comp
L Device:R R8
U 1 1 60A773FE
P 8700 4850
F 0 "R8" H 8770 4896 50  0000 L CNN
F 1 "1M" H 8770 4805 50  0000 L CNN
F 2 "Resistor_SMD:R_0603_1608Metric" V 8630 4850 50  0001 C CNN
F 3 "~" H 8700 4850 50  0001 C CNN
F 4 "RC0603FR-0710ML" H 8700 4850 50  0001 C CNN "Farnell Nr."
F 5 "10" H 8700 4850 50  0001 C CNN "MOQ"
F 6 "9238964" H 8700 4850 50  0001 C CNN "Ordercode"
	1    8700 4850
	1    0    0    -1  
$EndComp
Wire Wire Line
	8700 5000 8700 5100
Text GLabel 8850 5100 2    50   Input ~ 0
FB
Wire Wire Line
	8850 5100 8700 5100
Connection ~ 8700 5100
Wire Wire Line
	8700 5100 8700 5200
$Comp
L power:GND #PWR013
U 1 1 60A77409
P 8700 5600
F 0 "#PWR013" H 8700 5350 50  0001 C CNN
F 1 "GND" H 8705 5427 50  0000 C CNN
F 2 "" H 8700 5600 50  0001 C CNN
F 3 "" H 8700 5600 50  0001 C CNN
	1    8700 5600
	1    0    0    -1  
$EndComp
Wire Wire Line
	8700 5500 8700 5600
Text GLabel 8700 4600 1    50   Input ~ 0
VO_SW
Wire Wire Line
	8700 4600 8700 4700
Text GLabel 9450 1650 0    50   Input ~ 0
LED1
Text GLabel 9450 1750 0    50   Input ~ 0
LED2
Text GLabel 9450 1850 0    50   Input ~ 0
LED3
Text GLabel 9450 1950 0    50   Input ~ 0
LED4
$Comp
L Connector_Generic:Conn_01x05 J2
U 1 1 60A7C9E8
P 9950 1750
F 0 "J2" H 10030 1742 50  0000 L CNN
F 1 "Conn_01x05" H 10030 1651 50  0000 L CNN
F 2 "footprints:SolderWirePad_1x05_P3.81mm_Drill1mm" H 9950 1750 50  0001 C CNN
F 3 "~" H 9950 1750 50  0001 C CNN
F 4 "~" H 9950 1750 50  0001 C CNN "Farnell Nr."
F 5 "~" H 9950 1750 50  0001 C CNN "MOQ"
F 6 "~" H 9950 1750 50  0001 C CNN "Ordercode"
	1    9950 1750
	1    0    0    -1  
$EndComp
Text GLabel 3200 3350 0    50   Input ~ 0
CTRL
Wire Wire Line
	3200 3350 3400 3350
Text GLabel 3200 3550 0    50   Input ~ 0
TSET
Wire Wire Line
	3200 3550 3400 3550
$Comp
L Device:R R1
U 1 1 60A88A91
P 1650 5000
F 0 "R1" H 1720 5046 50  0000 L CNN
F 1 "44.2K" H 1720 4955 50  0000 L CNN
F 2 "Resistor_SMD:R_0603_1608Metric" V 1580 5000 50  0001 C CNN
F 3 "~" H 1650 5000 50  0001 C CNN
F 4 "CRCW060344K2FKEA." H 1650 5000 50  0001 C CNN "Farnell Nr."
F 5 "10" H 1650 5000 50  0001 C CNN "MOQ"
F 6 "2138466" H 1650 5000 50  0001 C CNN "Ordercode"
	1    1650 5000
	1    0    0    -1  
$EndComp
$Comp
L Device:R R2
U 1 1 60A887CB
P 2000 5000
F 0 "R2" H 2070 5046 50  0000 L CNN
F 1 "76.8K" H 2070 4955 50  0000 L CNN
F 2 "Resistor_SMD:R_0603_1608Metric" V 1930 5000 50  0001 C CNN
F 3 "~" H 2000 5000 50  0001 C CNN
F 4 "WR06X7682FTL" H 2000 5000 50  0001 C CNN "Farnell Nr."
F 5 "10" H 2000 5000 50  0001 C CNN "MOQ"
F 6 "2670894" H 2000 5000 50  0001 C CNN "Ordercode"
	1    2000 5000
	1    0    0    -1  
$EndComp
$Comp
L Device:C C3
U 1 1 60A8BE0C
P 2400 5000
F 0 "C3" H 2515 5046 50  0000 L CNN
F 1 "47nF" H 2515 4955 50  0000 L CNN
F 2 "Capacitor_SMD:C_0603_1608Metric" H 2438 4850 50  0001 C CNN
F 3 "~" H 2400 5000 50  0001 C CNN
F 4 "C0603C473K5RACTU" H 2400 5000 50  0001 C CNN "Farnell Nr."
F 5 "10" H 2400 5000 50  0001 C CNN "MOQ"
F 6 "1414643" H 2400 5000 50  0001 C CNN "Ordercode"
	1    2400 5000
	1    0    0    -1  
$EndComp
$Comp
L power:GND #PWR02
U 1 1 60A92EFF
P 1650 5250
F 0 "#PWR02" H 1650 5000 50  0001 C CNN
F 1 "GND" H 1655 5077 50  0000 C CNN
F 2 "" H 1650 5250 50  0001 C CNN
F 3 "" H 1650 5250 50  0001 C CNN
	1    1650 5250
	1    0    0    -1  
$EndComp
$Comp
L power:GND #PWR04
U 1 1 60A93444
P 2000 5250
F 0 "#PWR04" H 2000 5000 50  0001 C CNN
F 1 "GND" H 2005 5077 50  0000 C CNN
F 2 "" H 2000 5250 50  0001 C CNN
F 3 "" H 2000 5250 50  0001 C CNN
	1    2000 5250
	1    0    0    -1  
$EndComp
$Comp
L power:GND #PWR05
U 1 1 60A9366D
P 2400 5250
F 0 "#PWR05" H 2400 5000 50  0001 C CNN
F 1 "GND" H 2405 5077 50  0000 C CNN
F 2 "" H 2400 5250 50  0001 C CNN
F 3 "" H 2400 5250 50  0001 C CNN
	1    2400 5250
	1    0    0    -1  
$EndComp
Wire Wire Line
	2400 5150 2400 5250
Wire Wire Line
	2000 5150 2000 5250
Wire Wire Line
	2400 4150 2400 4850
Wire Wire Line
	2000 3950 2000 4850
$Comp
L Device:C C5
U 1 1 60AAF39A
P 3300 5000
F 0 "C5" H 3415 5046 50  0000 L CNN
F 1 "2.2nF" H 3415 4955 50  0000 L CNN
F 2 "Capacitor_SMD:C_0603_1608Metric" H 3338 4850 50  0001 C CNN
F 3 "~" H 3300 5000 50  0001 C CNN
F 4 "C0603C222J5RACTU" H 3300 5000 50  0001 C CNN "Farnell Nr."
F 5 "10" H 3300 5000 50  0001 C CNN "MOQ"
F 6 "2409039" H 3300 5000 50  0001 C CNN "Ordercode"
	1    3300 5000
	1    0    0    -1  
$EndComp
$Comp
L Device:R R5
U 1 1 60AAF81F
P 3300 4600
F 0 "R5" H 3370 4646 50  0000 L CNN
F 1 "25.5K" H 3370 4555 50  0000 L CNN
F 2 "Resistor_SMD:R_0603_1608Metric" V 3230 4600 50  0001 C CNN
F 3 "~" H 3300 4600 50  0001 C CNN
F 4 "RC0603FR-0725K5L" H 3300 4600 50  0001 C CNN "Farnell Nr."
F 5 "10" H 3300 4600 50  0001 C CNN "MOQ"
F 6 "3495785" H 3300 4600 50  0001 C CNN "Ordercode"
	1    3300 4600
	1    0    0    -1  
$EndComp
Wire Wire Line
	3300 4750 3300 4850
$Comp
L power:GND #PWR07
U 1 1 60AB669C
P 3300 5250
F 0 "#PWR07" H 3300 5000 50  0001 C CNN
F 1 "GND" H 3305 5077 50  0000 C CNN
F 2 "" H 3300 5250 50  0001 C CNN
F 3 "" H 3300 5250 50  0001 C CNN
	1    3300 5250
	1    0    0    -1  
$EndComp
Wire Wire Line
	3300 5150 3300 5250
$Comp
L Device:C C4
U 1 1 60AC5129
P 2850 5000
F 0 "C4" H 2965 5046 50  0000 L CNN
F 1 "51p" H 2965 4955 50  0000 L CNN
F 2 "Capacitor_SMD:C_0603_1608Metric" H 2888 4850 50  0001 C CNN
F 3 "~" H 2850 5000 50  0001 C CNN
F 4 "06031A510JAT2A" H 2850 5000 50  0001 C CNN "Farnell Nr."
F 5 "10" H 2850 5000 50  0001 C CNN "MOQ"
F 6 "1740602" H 2850 5000 50  0001 C CNN "Ordercode"
	1    2850 5000
	1    0    0    -1  
$EndComp
Wire Wire Line
	3300 4350 3300 4450
Wire Wire Line
	2850 4850 2850 4350
$Comp
L power:GND #PWR06
U 1 1 60ACC58C
P 2850 5250
F 0 "#PWR06" H 2850 5000 50  0001 C CNN
F 1 "GND" H 2855 5077 50  0000 C CNN
F 2 "" H 2850 5250 50  0001 C CNN
F 3 "" H 2850 5250 50  0001 C CNN
	1    2850 5250
	1    0    0    -1  
$EndComp
Wire Wire Line
	2850 5250 2850 5150
$Comp
L Device:R R10
U 1 1 60ADC3D0
P 9450 4850
F 0 "R10" H 9520 4896 50  0000 L CNN
F 1 "100K" H 9520 4805 50  0000 L CNN
F 2 "Resistor_SMD:R_0603_1608Metric" V 9380 4850 50  0001 C CNN
F 3 "~" H 9450 4850 50  0001 C CNN
F 4 "CRGCQ0603J100K" H 9450 4850 50  0001 C CNN "Farnell Nr."
F 5 "10" H 9450 4850 50  0001 C CNN "MOQ"
F 6 "2861876" H 9450 4850 50  0001 C CNN "Ordercode"
	1    9450 4850
	1    0    0    -1  
$EndComp
Wire Wire Line
	9450 5000 9450 5100
Text GLabel 9600 5100 2    50   Input ~ 0
CTRL
Wire Wire Line
	9600 5100 9450 5100
Connection ~ 9450 5100
Wire Wire Line
	9450 5100 9450 5150
$Comp
L power:GND #PWR014
U 1 1 60ADC3DB
P 9450 5600
F 0 "#PWR014" H 9450 5350 50  0001 C CNN
F 1 "GND" H 9455 5427 50  0000 C CNN
F 2 "" H 9450 5600 50  0001 C CNN
F 3 "" H 9450 5600 50  0001 C CNN
	1    9450 5600
	1    0    0    -1  
$EndComp
Text GLabel 9450 4600 1    50   Input ~ 0
VREF
Wire Wire Line
	9450 4600 9450 4700
Wire Wire Line
	10250 5000 10250 5100
Text GLabel 10400 5100 2    50   Input ~ 0
TSET
Wire Wire Line
	10400 5100 10250 5100
Connection ~ 10250 5100
Wire Wire Line
	10250 5100 10250 5200
$Comp
L power:GND #PWR016
U 1 1 60ADEF71
P 10250 5600
F 0 "#PWR016" H 10250 5350 50  0001 C CNN
F 1 "GND" H 10255 5427 50  0000 C CNN
F 2 "" H 10250 5600 50  0001 C CNN
F 3 "" H 10250 5600 50  0001 C CNN
	1    10250 5600
	1    0    0    -1  
$EndComp
Wire Wire Line
	10250 5500 10250 5600
Text GLabel 10250 4600 1    50   Input ~ 0
VREF
Wire Wire Line
	10250 4600 10250 4700
$Comp
L Device:R R11
U 1 1 60ADEF66
P 10250 4850
F 0 "R11" H 10320 4896 50  0000 L CNN
F 1 "53.6K" H 10320 4805 50  0000 L CNN
F 2 "Resistor_SMD:R_0603_1608Metric" V 10180 4850 50  0001 C CNN
F 3 "~" H 10250 4850 50  0001 C CNN
F 4 "RC0603FR-0753K6L" H 10250 4850 50  0001 C CNN "Farnell Nr."
F 5 "10" H 10250 4850 50  0001 C CNN "MOQ"
F 6 "3495876" H 10250 4850 50  0001 C CNN "Ordercode"
	1    10250 4850
	1    0    0    -1  
$EndComp
$Comp
L Device:R R12
U 1 1 60ADEF5D
P 10250 5350
F 0 "R12" H 10320 5396 50  0000 L CNN
F 1 "80.6K" H 10320 5305 50  0000 L CNN
F 2 "Resistor_SMD:R_0603_1608Metric" V 10180 5350 50  0001 C CNN
F 3 "~" H 10250 5350 50  0001 C CNN
F 4 "CRCW060380K6FKEA." H 10250 5350 50  0001 C CNN "Farnell Nr."
F 5 "10" H 10250 5350 50  0001 C CNN "MOQ"
F 6 "2138489" H 10250 5350 50  0001 C CNN "Ordercode"
	1    10250 5350
	1    0    0    -1  
$EndComp
Text Label 4700 1550 0    50   ~ 0
SW
$Comp
L Device:Thermistor TH1
U 1 1 60AF7ECF
P 9450 5350
F 0 "TH1" H 9555 5396 50  0000 L CNN
F 1 "Thermistor" H 9555 5305 50  0000 L CNN
F 2 "Resistor_THT:R_Axial_DIN0204_L3.6mm_D1.6mm_P1.90mm_Vertical" H 9450 5350 50  0001 C CNN
F 3 "~" H 9450 5350 50  0001 C CNN
F 4 "~" H 9450 5350 50  0001 C CNN "Farnell Nr."
F 5 "~" H 9450 5350 50  0001 C CNN "MOQ"
F 6 "~" H 9450 5350 50  0001 C CNN "Ordercode"
	1    9450 5350
	1    0    0    -1  
$EndComp
Wire Wire Line
	9450 5550 9450 5600
Text Label 3050 4350 0    50   ~ 0
VC
Text Label 3050 4150 0    50   ~ 0
SS
Text Label 3050 3950 0    50   ~ 0
RT
Text Label 3050 3750 0    50   ~ 0
ISET
$Comp
L Device:R R4
U 1 1 60A55AE4
P 2950 2200
F 0 "R4" H 3020 2246 50  0000 L CNN
F 1 "100K" H 3020 2155 50  0000 L CNN
F 2 "Resistor_SMD:R_0603_1608Metric" V 2880 2200 50  0001 C CNN
F 3 "~" H 2950 2200 50  0001 C CNN
F 4 "CRGCQ0603J100K" H 2950 2200 50  0001 C CNN "Farnell Nr."
F 5 "10" H 2950 2200 50  0001 C CNN "MOQ"
F 6 "2861876" H 2950 2200 50  0001 C CNN "Ordercode"
	1    2950 2200
	1    0    0    -1  
$EndComp
$Comp
L Device:R R3
U 1 1 60A56B5F
P 2600 2200
F 0 "R3" H 2670 2246 50  0000 L CNN
F 1 "100K" H 2670 2155 50  0000 L CNN
F 2 "Resistor_SMD:R_0603_1608Metric" V 2530 2200 50  0001 C CNN
F 3 "~" H 2600 2200 50  0001 C CNN
F 4 "CRGCQ0603J100K" H 2600 2200 50  0001 C CNN "Farnell Nr."
F 5 "10" H 2600 2200 50  0001 C CNN "MOQ"
F 6 "2861876" H 2600 2200 50  0001 C CNN "Ordercode"
	1    2600 2200
	1    0    0    -1  
$EndComp
Connection ~ 3300 1550
Wire Wire Line
	1200 1550 1350 1550
Connection ~ 1350 1550
$Comp
L power:GND #PWR012
U 1 1 60A6AD70
P 8400 1750
F 0 "#PWR012" H 8400 1500 50  0001 C CNN
F 1 "GND" H 8405 1577 50  0000 C CNN
F 2 "" H 8400 1750 50  0001 C CNN
F 3 "" H 8400 1750 50  0001 C CNN
	1    8400 1750
	1    0    0    -1  
$EndComp
Wire Wire Line
	8400 1750 8400 1650
Wire Wire Line
	8400 1650 8300 1650
Text GLabel 2400 2500 0    50   Input ~ 0
SHORTLED
Text GLabel 2400 2700 0    50   Input ~ 0
OPENLED
Text GLabel 8550 1550 2    50   Input ~ 0
VIN
Wire Wire Line
	8550 1550 8300 1550
Text GLabel 1200 1550 0    50   Input ~ 0
VIN
Wire Wire Line
	2950 2350 2950 2500
Wire Wire Line
	2950 2500 3400 2500
Wire Wire Line
	2600 2350 2600 2700
Wire Wire Line
	2600 2700 3400 2700
Wire Wire Line
	2400 2500 2950 2500
Connection ~ 2950 2500
Wire Wire Line
	2400 2700 2600 2700
Connection ~ 2600 2700
$Comp
L Device:L L1
U 1 1 60A5B4B2
P 4350 1550
F 0 "L1" V 4450 1550 50  0000 C CNN
F 1 "10uH" V 4250 1550 50  0000 C CNN
F 2 "footprints:LPS4018" H 4350 1550 50  0001 C CNN
F 3 "~" H 4350 1550 50  0001 C CNN
F 4 "LPS4018-103MRB" H 4350 1550 50  0001 C CNN "Farnell Nr."
F 5 "1" H 4350 1550 50  0001 C CNN "MOQ"
F 6 "2408105" H 4350 1550 50  0001 C CNN "Ordercode"
	1    4350 1550
	0    1    -1   0   
$EndComp
Text Notes 3750 1450 0    39   ~ 0
Connect marked lead\n(dot or bar) to the high \ndv/dt node (SW)\n
Text GLabel 9450 2250 0    50   Input ~ 0
VCC
Text GLabel 9450 2350 0    50   Input ~ 0
SHORTLED
Text GLabel 9450 2450 0    50   Input ~ 0
OPENLED
Wire Wire Line
	9450 2250 9750 2250
Wire Wire Line
	9450 2350 9750 2350
Wire Wire Line
	9450 2450 9750 2450
Wire Wire Line
	9450 1650 9750 1650
Wire Wire Line
	9450 1750 9750 1750
Wire Wire Line
	9450 1850 9750 1850
Wire Wire Line
	9450 1950 9750 1950
$Comp
L Connector_Generic:Conn_01x04 J3
U 1 1 60ABF53C
P 9950 2350
F 0 "J3" H 10030 2342 50  0000 L CNN
F 1 "Conn_01x04" H 10030 2251 50  0000 L CNN
F 2 "Connector_Wire:SolderWirePad_1x04_P3.81mm_Drill1mm" H 9950 2350 50  0001 C CNN
F 3 "~" H 9950 2350 50  0001 C CNN
F 4 "~" H 9950 2350 50  0001 C CNN "Farnell Nr."
F 5 "~" H 9950 2350 50  0001 C CNN "MOQ"
F 6 "~" H 9950 2350 50  0001 C CNN "Ordercode"
	1    9950 2350
	1    0    0    -1  
$EndComp
$Comp
L power:GND #PWR015
U 1 1 60ABFCD7
P 9650 2650
F 0 "#PWR015" H 9650 2400 50  0001 C CNN
F 1 "GND" H 9655 2477 50  0000 C CNN
F 2 "" H 9650 2650 50  0001 C CNN
F 3 "" H 9650 2650 50  0001 C CNN
	1    9650 2650
	1    0    0    -1  
$EndComp
Wire Wire Line
	9650 2650 9650 2550
Wire Wire Line
	9650 2550 9750 2550
Wire Wire Line
	1800 1550 3300 1550
Wire Wire Line
	2950 2050 2950 1950
Wire Wire Line
	2950 1950 2600 1950
Wire Wire Line
	2600 1950 2600 2050
Text GLabel 2600 1850 1    50   Input ~ 0
VCC
Wire Wire Line
	2600 1850 2600 1950
Connection ~ 2600 1950
$Comp
L Connector_Generic:Conn_01x02 J1
U 1 1 60AC819B
P 8100 1550
F 0 "J1" H 8018 1767 50  0000 C CNN
F 1 "Conn_01x02" H 8018 1676 50  0000 C CNN
F 2 "Connector_Wire:SolderWirePad_1x02_P3.81mm_Drill1mm" H 8100 1550 50  0001 C CNN
F 3 "~" H 8100 1550 50  0001 C CNN
F 4 "~" H 8100 1550 50  0001 C CNN "Farnell Nr."
F 5 "~" H 8100 1550 50  0001 C CNN "MOQ"
F 6 "~" H 8100 1550 50  0001 C CNN "Ordercode"
	1    8100 1550
	-1   0    0    -1  
$EndComp
Text GLabel 9450 1550 0    50   Input ~ 0
VOUT
Wire Wire Line
	9450 1550 9750 1550
Wire Wire Line
	1650 3750 3400 3750
Wire Wire Line
	2000 3950 3400 3950
Wire Wire Line
	2400 4150 3400 4150
Wire Wire Line
	2850 4350 3300 4350
Connection ~ 3300 4350
Wire Wire Line
	3300 4350 3400 4350
$Comp
L Device:Q_NMOS_GSD Q1
U 1 1 60A7F592
P 7450 5350
F 0 "Q1" H 7300 5450 50  0000 L CNN
F 1 "2N7002E" H 7050 5200 50  0000 L CNN
F 2 "Package_TO_SOT_SMD:SOT-23" H 7650 5450 50  0001 C CNN
F 3 "~" H 7450 5350 50  0001 C CNN
F 4 "2N7002E-7-F" H 7450 5350 50  0001 C CNN "Farnell Nr."
F 5 "5" H 7450 5350 50  0001 C CNN "MOQ"
F 6 "3577032" H 7450 5350 50  0001 C CNN "Ordercode"
	1    7450 5350
	1    0    0    -1  
$EndComp
Wire Wire Line
	7550 5100 7850 5100
Wire Wire Line
	7550 5600 7850 5600
Connection ~ 7850 5600
Wire Wire Line
	7550 5600 7550 5550
Wire Wire Line
	7550 5100 7550 5150
Text GLabel 7250 5350 0    50   Input ~ 0
SHDN
Wire Wire Line
	7850 5000 7850 5100
Text GLabel 9450 3000 0    50   Input ~ 0
SHDN
$Comp
L Connector_Generic:Conn_01x01 J4
U 1 1 60AC3EB7
P 9950 3000
F 0 "J4" H 10030 3042 50  0000 L CNN
F 1 "Conn_01x01" H 10030 2951 50  0000 L CNN
F 2 "Connector_Wire:SolderWirePad_1x01_Drill1mm" H 9950 3000 50  0001 C CNN
F 3 "~" H 9950 3000 50  0001 C CNN
F 4 "~" H 9950 3000 50  0001 C CNN "Farnell Nr."
F 5 "~" H 9950 3000 50  0001 C CNN "MOQ"
F 6 "~" H 9950 3000 50  0001 C CNN "Ordercode"
	1    9950 3000
	1    0    0    -1  
$EndComp
Wire Wire Line
	9750 3000 9450 3000
$Comp
L Connector:TestPoint TP1
U 1 1 60A87F3A
P 4700 1300
F 0 "TP1" H 4758 1418 50  0000 L CNN
F 1 "TestPoint" H 4758 1327 50  0000 L CNN
F 2 "TestPoint:TestPoint_THTPad_1.0x1.0mm_Drill0.5mm" H 4900 1300 50  0001 C CNN
F 3 "~" H 4900 1300 50  0001 C CNN
F 4 "~" H 4700 1300 50  0001 C CNN "Farnell Nr."
F 5 "~" H 4700 1300 50  0001 C CNN "MOQ"
F 6 "~" H 4700 1300 50  0001 C CNN "Ordercode"
	1    4700 1300
	1    0    0    -1  
$EndComp
Wire Wire Line
	4700 1300 4700 1550
Text Notes 1550 1500 0    39   ~ 0
Place C2 close to\nU1 for decoupling
Wire Wire Line
	1650 5150 1650 5250
Wire Wire Line
	1650 3750 1650 4850
$Comp
L Device:D D3
U 1 1 60AD8E4C
P 7000 2600
F 0 "D3" V 6954 2679 50  0000 L CNN
F 1 "1N4148WS" H 7000 2700 50  0000 L CNN
F 2 "Diode_SMD:D_SOD-323" H 7000 2600 50  0001 C CNN
F 3 "~" H 7000 2600 50  0001 C CNN
F 4 "1N4148WS" H 7000 2600 50  0001 C CNN "Farnell Nr."
F 5 "5" H 7000 2600 50  0001 C CNN "MOQ"
F 6 "2675148" H 7000 2600 50  0001 C CNN "Ordercode"
	1    7000 2600
	0    1    1    0   
$EndComp
$Comp
L Device:D D4
U 1 1 60AD9EDB
P 7250 2600
F 0 "D4" V 7204 2679 50  0000 L CNN
F 1 "1N4148WS" H 7250 2700 50  0000 L CNN
F 2 "Diode_SMD:D_SOD-323" H 7250 2600 50  0001 C CNN
F 3 "~" H 7250 2600 50  0001 C CNN
F 4 "1N4148WS" H 7250 2600 50  0001 C CNN "Farnell Nr."
F 5 "5" H 7250 2600 50  0001 C CNN "MOQ"
F 6 "2675148" H 7250 2600 50  0001 C CNN "Ordercode"
	1    7250 2600
	0    1    1    0   
$EndComp
$Comp
L Device:D D5
U 1 1 60ADA208
P 7500 2600
F 0 "D5" V 7454 2679 50  0000 L CNN
F 1 "1N4148WS" H 7500 2700 50  0000 L CNN
F 2 "Diode_SMD:D_SOD-323" H 7500 2600 50  0001 C CNN
F 3 "~" H 7500 2600 50  0001 C CNN
F 4 "1N4148WS" H 7500 2600 50  0001 C CNN "Farnell Nr."
F 5 "5" H 7500 2600 50  0001 C CNN "MOQ"
F 6 "2675148" H 7500 2600 50  0001 C CNN "Ordercode"
	1    7500 2600
	0    1    1    0   
$EndComp
Wire Wire Line
	7500 3050 7500 2750
Wire Wire Line
	7500 3050 7750 3050
Wire Wire Line
	7250 2750 7250 3250
Wire Wire Line
	7250 3250 7750 3250
Wire Wire Line
	7000 2750 7000 3450
Wire Wire Line
	7000 3450 7750 3450
Wire Wire Line
	6750 2750 6750 3650
Wire Wire Line
	6750 3650 7750 3650
Wire Wire Line
	6750 2450 6750 2350
Wire Wire Line
	6750 2350 7000 2350
Wire Wire Line
	7000 2450 7000 2350
Connection ~ 7000 2350
Wire Wire Line
	7000 2350 7250 2350
Wire Wire Line
	7500 3050 6000 3050
Connection ~ 7500 3050
Wire Wire Line
	7250 3250 6000 3250
Connection ~ 7250 3250
Wire Wire Line
	7000 3450 6000 3450
Connection ~ 7000 3450
Wire Wire Line
	6750 3650 6000 3650
Connection ~ 6750 3650
Text GLabel 7500 2250 1    50   Input ~ 0
VOUT
Text Notes 6750 3800 0    39   ~ 0
Place D2-5 close to U1\nto limit stray inductance
$Comp
L Device:D D2
U 1 1 60ADA416
P 6750 2600
F 0 "D2" V 6704 2679 50  0000 L CNN
F 1 "1N4148WS" H 6750 2700 50  0000 L CNN
F 2 "Diode_SMD:D_SOD-323" H 6750 2600 50  0001 C CNN
F 3 "~" H 6750 2600 50  0001 C CNN
F 4 "1N4148WS" H 6750 2600 50  0001 C CNN "Farnell Nr."
F 5 "5" H 6750 2600 50  0001 C CNN "MOQ"
F 6 "2675148" H 6750 2600 50  0001 C CNN "Ordercode"
	1    6750 2600
	0    1    1    0   
$EndComp
Wire Wire Line
	7250 2350 7250 2450
Wire Wire Line
	7250 2350 7500 2350
Wire Wire Line
	7500 2350 7500 2250
Connection ~ 7250 2350
Wire Wire Line
	7500 2350 7500 2450
Connection ~ 7500 2350
$Comp
L Mechanical:MountingHole H1
U 1 1 60AFB4E9
P 1400 6150
F 0 "H1" H 1500 6196 50  0000 L CNN
F 1 "MountingHole" H 1500 6105 50  0000 L CNN
F 2 "MountingHole:MountingHole_2.2mm_M2" H 1400 6150 50  0001 C CNN
F 3 "~" H 1400 6150 50  0001 C CNN
F 4 "~" H 1400 6150 50  0001 C CNN "Farnell Nr."
F 5 "~" H 1400 6150 50  0001 C CNN "MOQ"
F 6 "~" H 1400 6150 50  0001 C CNN "Ordercode"
	1    1400 6150
	1    0    0    -1  
$EndComp
$Comp
L Mechanical:MountingHole H2
U 1 1 60AFB892
P 1400 6450
F 0 "H2" H 1500 6496 50  0000 L CNN
F 1 "MountingHole" H 1500 6405 50  0000 L CNN
F 2 "MountingHole:MountingHole_2.2mm_M2" H 1400 6450 50  0001 C CNN
F 3 "~" H 1400 6450 50  0001 C CNN
F 4 "~" H 1400 6450 50  0001 C CNN "Farnell Nr."
F 5 "~" H 1400 6450 50  0001 C CNN "MOQ"
F 6 "~" H 1400 6450 50  0001 C CNN "Ordercode"
	1    1400 6450
	1    0    0    -1  
$EndComp
$Comp
L Mechanical:MountingHole H3
U 1 1 60AFBB63
P 1400 6750
F 0 "H3" H 1500 6796 50  0000 L CNN
F 1 "MountingHole" H 1500 6705 50  0000 L CNN
F 2 "MountingHole:MountingHole_2.2mm_M2" H 1400 6750 50  0001 C CNN
F 3 "~" H 1400 6750 50  0001 C CNN
F 4 "~" H 1400 6750 50  0001 C CNN "Farnell Nr."
F 5 "~" H 1400 6750 50  0001 C CNN "MOQ"
F 6 "~" H 1400 6750 50  0001 C CNN "Ordercode"
	1    1400 6750
	1    0    0    -1  
$EndComp
$EndSCHEMATC
