(module SSOP-28_FE (layer F.Cu)
  (fp_text reference REF** (at 0 0) (layer F.SilkS)
    (effects (font (size 1 1) (thickness .15)))
  )
  (fp_text value SSOP-28_FE (at 0 0) (layer F.SilkS)
    (effects (font (size 1 1) (thickness .15)))
  )
  (fp_text user "Copyright 2016 Accelerated Designs. All rights reserved." (at 0 0) (layer Cmts.User)
    (effects (font (size .127 .127) (thickness .002)))
  )
  (fp_text user "*" (at -1.8669 -4.826) (layer F.SilkS)
    (effects (font (size 1 1) (thickness .15)))
  )
  (fp_text user "*" (at -3.0734 -5.72516) (layer F.Fab)
    (effects (font (size 1 1) (thickness .15)))
  )
  (fp_text user "0.026in/0.65mm" (at -5.8674 -3.90144) (layer Dwgs.User)
    (effects (font (size 1 1) (thickness .15)))
  )
  (fp_text user "0.014in/0.356mm" (at 5.8674 -4.22656) (layer Dwgs.User)
    (effects (font (size 1 1) (thickness .15)))
  )
  (fp_text user "0.222in/5.639mm" (at 0 -7.3152) (layer Dwgs.User)
    (effects (font (size 1 1) (thickness .15)))
  )
  (fp_text user "0.058in/1.473mm" (at -2.8194 7.3152) (layer Dwgs.User)
    (effects (font (size 1 1) (thickness .15)))
  )
  (fp_text user "0.187in/4.75mm" (at 7.8359 0) (layer Dwgs.User)
    (effects (font (size 1 1) (thickness .15)))
  )
  (fp_text user "0.108in/2.743mm" (at 0 8.5852) (layer Dwgs.User)
    (effects (font (size 1 1) (thickness .15)))
  )
  (fp_text user "*" (at -3.0734 -5.72516) (layer F.Fab)
    (effects (font (size 1 1) (thickness .15)))
  )
  (fp_text user "*" (at -1.8669 -4.826) (layer F.SilkS)
    (effects (font (size 1 1) (thickness .15)))
  )
  (fp_line (start -2.2479 -4.07416) (end -2.2479 -4.37896) (layer F.Fab) (width .1524))
  (fp_line (start -2.2479 -4.37896) (end -3.2004 -4.37896) (layer F.Fab) (width .1524))
  (fp_line (start -3.2004 -4.37896) (end -3.2004 -4.07416) (layer F.Fab) (width .1524))
  (fp_line (start -3.2004 -4.07416) (end -2.2479 -4.07416) (layer F.Fab) (width .1524))
  (fp_line (start -2.2479 -3.42392) (end -2.2479 -3.72872) (layer F.Fab) (width .1524))
  (fp_line (start -2.2479 -3.72872) (end -3.2004 -3.72872) (layer F.Fab) (width .1524))
  (fp_line (start -3.2004 -3.72872) (end -3.2004 -3.42392) (layer F.Fab) (width .1524))
  (fp_line (start -3.2004 -3.42392) (end -2.2479 -3.42392) (layer F.Fab) (width .1524))
  (fp_line (start -2.2479 -2.77368) (end -2.2479 -3.07848) (layer F.Fab) (width .1524))
  (fp_line (start -2.2479 -3.07848) (end -3.2004 -3.07848) (layer F.Fab) (width .1524))
  (fp_line (start -3.2004 -3.07848) (end -3.2004 -2.77368) (layer F.Fab) (width .1524))
  (fp_line (start -3.2004 -2.77368) (end -2.2479 -2.77368) (layer F.Fab) (width .1524))
  (fp_line (start -2.2479 -2.12344) (end -2.2479 -2.42824) (layer F.Fab) (width .1524))
  (fp_line (start -2.2479 -2.42824) (end -3.2004 -2.42824) (layer F.Fab) (width .1524))
  (fp_line (start -3.2004 -2.42824) (end -3.2004 -2.12344) (layer F.Fab) (width .1524))
  (fp_line (start -3.2004 -2.12344) (end -2.2479 -2.12344) (layer F.Fab) (width .1524))
  (fp_line (start -2.2479 -1.4732) (end -2.2479 -1.778) (layer F.Fab) (width .1524))
  (fp_line (start -2.2479 -1.778) (end -3.2004 -1.778) (layer F.Fab) (width .1524))
  (fp_line (start -3.2004 -1.778) (end -3.2004 -1.4732) (layer F.Fab) (width .1524))
  (fp_line (start -3.2004 -1.4732) (end -2.2479 -1.4732) (layer F.Fab) (width .1524))
  (fp_line (start -2.2479 -.82296) (end -2.2479 -1.12776) (layer F.Fab) (width .1524))
  (fp_line (start -2.2479 -1.12776) (end -3.2004 -1.12776) (layer F.Fab) (width .1524))
  (fp_line (start -3.2004 -1.12776) (end -3.2004 -.82296) (layer F.Fab) (width .1524))
  (fp_line (start -3.2004 -.82296) (end -2.2479 -.82296) (layer F.Fab) (width .1524))
  (fp_line (start -2.2479 -.17272) (end -2.2479 -.47752) (layer F.Fab) (width .1524))
  (fp_line (start -2.2479 -.47752) (end -3.2004 -.47752) (layer F.Fab) (width .1524))
  (fp_line (start -3.2004 -.47752) (end -3.2004 -.17272) (layer F.Fab) (width .1524))
  (fp_line (start -3.2004 -.17272) (end -2.2479 -.17272) (layer F.Fab) (width .1524))
  (fp_line (start -2.2479 .47752) (end -2.2479 .17272) (layer F.Fab) (width .1524))
  (fp_line (start -2.2479 .17272) (end -3.2004 .17272) (layer F.Fab) (width .1524))
  (fp_line (start -3.2004 .17272) (end -3.2004 .47752) (layer F.Fab) (width .1524))
  (fp_line (start -3.2004 .47752) (end -2.2479 .47752) (layer F.Fab) (width .1524))
  (fp_line (start -2.2479 1.12776) (end -2.2479 .82296) (layer F.Fab) (width .1524))
  (fp_line (start -2.2479 .82296) (end -3.2004 .82296) (layer F.Fab) (width .1524))
  (fp_line (start -3.2004 .82296) (end -3.2004 1.12776) (layer F.Fab) (width .1524))
  (fp_line (start -3.2004 1.12776) (end -2.2479 1.12776) (layer F.Fab) (width .1524))
  (fp_line (start -2.2479 1.778) (end -2.2479 1.4732) (layer F.Fab) (width .1524))
  (fp_line (start -2.2479 1.4732) (end -3.2004 1.4732) (layer F.Fab) (width .1524))
  (fp_line (start -3.2004 1.4732) (end -3.2004 1.778) (layer F.Fab) (width .1524))
  (fp_line (start -3.2004 1.778) (end -2.2479 1.778) (layer F.Fab) (width .1524))
  (fp_line (start -2.2479 2.42824) (end -2.2479 2.12344) (layer F.Fab) (width .1524))
  (fp_line (start -2.2479 2.12344) (end -3.2004 2.12344) (layer F.Fab) (width .1524))
  (fp_line (start -3.2004 2.12344) (end -3.2004 2.42824) (layer F.Fab) (width .1524))
  (fp_line (start -3.2004 2.42824) (end -2.2479 2.42824) (layer F.Fab) (width .1524))
  (fp_line (start -2.2479 3.07848) (end -2.2479 2.77368) (layer F.Fab) (width .1524))
  (fp_line (start -2.2479 2.77368) (end -3.2004 2.77368) (layer F.Fab) (width .1524))
  (fp_line (start -3.2004 2.77368) (end -3.2004 3.07848) (layer F.Fab) (width .1524))
  (fp_line (start -3.2004 3.07848) (end -2.2479 3.07848) (layer F.Fab) (width .1524))
  (fp_line (start -2.2479 3.72872) (end -2.2479 3.42392) (layer F.Fab) (width .1524))
  (fp_line (start -2.2479 3.42392) (end -3.2004 3.42392) (layer F.Fab) (width .1524))
  (fp_line (start -3.2004 3.42392) (end -3.2004 3.72872) (layer F.Fab) (width .1524))
  (fp_line (start -3.2004 3.72872) (end -2.2479 3.72872) (layer F.Fab) (width .1524))
  (fp_line (start -2.2479 4.37896) (end -2.2479 4.07416) (layer F.Fab) (width .1524))
  (fp_line (start -2.2479 4.07416) (end -3.2004 4.07416) (layer F.Fab) (width .1524))
  (fp_line (start -3.2004 4.07416) (end -3.2004 4.37896) (layer F.Fab) (width .1524))
  (fp_line (start -3.2004 4.37896) (end -2.2479 4.37896) (layer F.Fab) (width .1524))
  (fp_line (start 2.2479 4.07416) (end 2.2479 4.37896) (layer F.Fab) (width .1524))
  (fp_line (start 2.2479 4.37896) (end 3.2004 4.37896) (layer F.Fab) (width .1524))
  (fp_line (start 3.2004 4.37896) (end 3.2004 4.07416) (layer F.Fab) (width .1524))
  (fp_line (start 3.2004 4.07416) (end 2.2479 4.07416) (layer F.Fab) (width .1524))
  (fp_line (start 2.2479 3.42392) (end 2.2479 3.72872) (layer F.Fab) (width .1524))
  (fp_line (start 2.2479 3.72872) (end 3.2004 3.72872) (layer F.Fab) (width .1524))
  (fp_line (start 3.2004 3.72872) (end 3.2004 3.42392) (layer F.Fab) (width .1524))
  (fp_line (start 3.2004 3.42392) (end 2.2479 3.42392) (layer F.Fab) (width .1524))
  (fp_line (start 2.2479 2.77368) (end 2.2479 3.07848) (layer F.Fab) (width .1524))
  (fp_line (start 2.2479 3.07848) (end 3.2004 3.07848) (layer F.Fab) (width .1524))
  (fp_line (start 3.2004 3.07848) (end 3.2004 2.77368) (layer F.Fab) (width .1524))
  (fp_line (start 3.2004 2.77368) (end 2.2479 2.77368) (layer F.Fab) (width .1524))
  (fp_line (start 2.2479 2.12344) (end 2.2479 2.42824) (layer F.Fab) (width .1524))
  (fp_line (start 2.2479 2.42824) (end 3.2004 2.42824) (layer F.Fab) (width .1524))
  (fp_line (start 3.2004 2.42824) (end 3.2004 2.12344) (layer F.Fab) (width .1524))
  (fp_line (start 3.2004 2.12344) (end 2.2479 2.12344) (layer F.Fab) (width .1524))
  (fp_line (start 2.2479 1.4732) (end 2.2479 1.778) (layer F.Fab) (width .1524))
  (fp_line (start 2.2479 1.778) (end 3.2004 1.778) (layer F.Fab) (width .1524))
  (fp_line (start 3.2004 1.778) (end 3.2004 1.4732) (layer F.Fab) (width .1524))
  (fp_line (start 3.2004 1.4732) (end 2.2479 1.4732) (layer F.Fab) (width .1524))
  (fp_line (start 2.2479 .82296) (end 2.2479 1.12776) (layer F.Fab) (width .1524))
  (fp_line (start 2.2479 1.12776) (end 3.2004 1.12776) (layer F.Fab) (width .1524))
  (fp_line (start 3.2004 1.12776) (end 3.2004 .82296) (layer F.Fab) (width .1524))
  (fp_line (start 3.2004 .82296) (end 2.2479 .82296) (layer F.Fab) (width .1524))
  (fp_line (start 2.2479 .17272) (end 2.2479 .47752) (layer F.Fab) (width .1524))
  (fp_line (start 2.2479 .47752) (end 3.2004 .47752) (layer F.Fab) (width .1524))
  (fp_line (start 3.2004 .47752) (end 3.2004 .17272) (layer F.Fab) (width .1524))
  (fp_line (start 3.2004 .17272) (end 2.2479 .17272) (layer F.Fab) (width .1524))
  (fp_line (start 2.2479 -.47752) (end 2.2479 -.17272) (layer F.Fab) (width .1524))
  (fp_line (start 2.2479 -.17272) (end 3.2004 -.17272) (layer F.Fab) (width .1524))
  (fp_line (start 3.2004 -.17272) (end 3.2004 -.47752) (layer F.Fab) (width .1524))
  (fp_line (start 3.2004 -.47752) (end 2.2479 -.47752) (layer F.Fab) (width .1524))
  (fp_line (start 2.2479 -1.12776) (end 2.2479 -.82296) (layer F.Fab) (width .1524))
  (fp_line (start 2.2479 -.82296) (end 3.2004 -.82296) (layer F.Fab) (width .1524))
  (fp_line (start 3.2004 -.82296) (end 3.2004 -1.12776) (layer F.Fab) (width .1524))
  (fp_line (start 3.2004 -1.12776) (end 2.2479 -1.12776) (layer F.Fab) (width .1524))
  (fp_line (start 2.2479 -1.778) (end 2.2479 -1.4732) (layer F.Fab) (width .1524))
  (fp_line (start 2.2479 -1.4732) (end 3.2004 -1.4732) (layer F.Fab) (width .1524))
  (fp_line (start 3.2004 -1.4732) (end 3.2004 -1.778) (layer F.Fab) (width .1524))
  (fp_line (start 3.2004 -1.778) (end 2.2479 -1.778) (layer F.Fab) (width .1524))
  (fp_line (start 2.2479 -2.42824) (end 2.2479 -2.12344) (layer F.Fab) (width .1524))
  (fp_line (start 2.2479 -2.12344) (end 3.2004 -2.12344) (layer F.Fab) (width .1524))
  (fp_line (start 3.2004 -2.12344) (end 3.2004 -2.42824) (layer F.Fab) (width .1524))
  (fp_line (start 3.2004 -2.42824) (end 2.2479 -2.42824) (layer F.Fab) (width .1524))
  (fp_line (start 2.2479 -3.07848) (end 2.2479 -2.77368) (layer F.Fab) (width .1524))
  (fp_line (start 2.2479 -2.77368) (end 3.2004 -2.77368) (layer F.Fab) (width .1524))
  (fp_line (start 3.2004 -2.77368) (end 3.2004 -3.07848) (layer F.Fab) (width .1524))
  (fp_line (start 3.2004 -3.07848) (end 2.2479 -3.07848) (layer F.Fab) (width .1524))
  (fp_line (start 2.2479 -3.72872) (end 2.2479 -3.42392) (layer F.Fab) (width .1524))
  (fp_line (start 2.2479 -3.42392) (end 3.2004 -3.42392) (layer F.Fab) (width .1524))
  (fp_line (start 3.2004 -3.42392) (end 3.2004 -3.72872) (layer F.Fab) (width .1524))
  (fp_line (start 3.2004 -3.72872) (end 2.2479 -3.72872) (layer F.Fab) (width .1524))
  (fp_line (start 2.2479 -4.37896) (end 2.2479 -4.07416) (layer F.Fab) (width .1524))
  (fp_line (start 2.2479 -4.07416) (end 3.2004 -4.07416) (layer F.Fab) (width .1524))
  (fp_line (start 3.2004 -4.07416) (end 3.2004 -4.37896) (layer F.Fab) (width .1524))
  (fp_line (start 3.2004 -4.37896) (end 2.2479 -4.37896) (layer F.Fab) (width .1524))
  (fp_line (start -2.3749 5.0292) (end 2.3749 5.0292) (layer F.SilkS) (width .1524))
  (fp_line (start 2.3749 5.0292) (end 2.3749 4.7371) (layer F.SilkS) (width .1524))
  (fp_line (start 2.3749 -5.0292) (end -2.3749 -5.0292) (layer F.SilkS) (width .1524))
  (fp_line (start -2.3749 -5.0292) (end -2.3749 -4.7371) (layer F.SilkS) (width .1524))
  (fp_line (start -2.2479 4.9022) (end 2.2479 4.9022) (layer F.Fab) (width .1524))
  (fp_line (start 2.2479 4.9022) (end 2.2479 -4.9022) (layer F.Fab) (width .1524))
  (fp_line (start 2.2479 -4.9022) (end -2.2479 -4.9022) (layer F.Fab) (width .1524))
  (fp_line (start -2.2479 -4.9022) (end -2.2479 4.9022) (layer F.Fab) (width .1524))
  (fp_line (start -2.3749 4.7371) (end -2.3749 5.0292) (layer F.SilkS) (width .1524))
  (fp_line (start 2.3749 -4.7371) (end 2.3749 -5.0292) (layer F.SilkS) (width .1524))
  (fp_line (start -4.064 1.4351) (end -4.064 1.8161) (layer F.SilkS) (width .1524))
  (fp_line (start -4.064 1.8161) (end -3.81 1.8161) (layer F.SilkS) (width .1524))
  (fp_line (start -3.81 1.8161) (end -3.81 1.4351) (layer F.SilkS) (width .1524))
  (fp_line (start -3.81 1.4351) (end -4.064 1.4351) (layer F.SilkS) (width .1524))
  (fp_line (start 4.064 .78486) (end 4.064 1.16586) (layer F.SilkS) (width .1524))
  (fp_line (start 4.064 1.16586) (end 3.81 1.16586) (layer F.SilkS) (width .1524))
  (fp_line (start 3.81 1.16586) (end 3.81 .78486) (layer F.SilkS) (width .1524))
  (fp_line (start 3.81 .78486) (end 4.064 .78486) (layer F.SilkS) (width .1524))
  (fp_line (start -1.2716 -2.2749) (end -1.2716 -.891633) (layer F.Paste) (width .1524))
  (fp_line (start -1.2716 -.891633) (end -.1 -.891633) (layer F.Paste) (width .1524))
  (fp_line (start -.1 -.891633) (end -.1 -2.2749) (layer F.Paste) (width .1524))
  (fp_line (start -.1 -2.2749) (end -1.2716 -2.2749) (layer F.Paste) (width .1524))
  (fp_line (start -1.2716 -.691634) (end -1.2716 .691634) (layer F.Paste) (width .1524))
  (fp_line (start -1.2716 .691634) (end -.1 .691634) (layer F.Paste) (width .1524))
  (fp_line (start -.1 .691634) (end -.1 -.691634) (layer F.Paste) (width .1524))
  (fp_line (start -.1 -.691634) (end -1.2716 -.691634) (layer F.Paste) (width .1524))
  (fp_line (start -1.2716 .891633) (end -1.2716 2.2749) (layer F.Paste) (width .1524))
  (fp_line (start -1.2716 2.2749) (end -.1 2.2749) (layer F.Paste) (width .1524))
  (fp_line (start -.1 2.2749) (end -.1 .891633) (layer F.Paste) (width .1524))
  (fp_line (start -.1 .891633) (end -1.2716 .891633) (layer F.Paste) (width .1524))
  (fp_line (start .1 -2.2749) (end .1 -.891633) (layer F.Paste) (width .1524))
  (fp_line (start .1 -.891633) (end 1.2716 -.891633) (layer F.Paste) (width .1524))
  (fp_line (start 1.2716 -.891633) (end 1.2716 -2.2749) (layer F.Paste) (width .1524))
  (fp_line (start 1.2716 -2.2749) (end .1 -2.2749) (layer F.Paste) (width .1524))
  (fp_line (start .1 -.691634) (end .1 .691634) (layer F.Paste) (width .1524))
  (fp_line (start .1 .691634) (end 1.2716 .691634) (layer F.Paste) (width .1524))
  (fp_line (start 1.2716 .691634) (end 1.2716 -.691634) (layer F.Paste) (width .1524))
  (fp_line (start 1.2716 -.691634) (end .1 -.691634) (layer F.Paste) (width .1524))
  (fp_line (start .1 .891633) (end .1 2.2749) (layer F.Paste) (width .1524))
  (fp_line (start .1 2.2749) (end 1.2716 2.2749) (layer F.Paste) (width .1524))
  (fp_line (start 1.2716 2.2749) (end 1.2716 .891633) (layer F.Paste) (width .1524))
  (fp_line (start 1.2716 .891633) (end .1 .891633) (layer F.Paste) (width .1524))
  (fp_line (start -3.81 4.60248) (end -3.81 -4.60248) (layer F.CrtYd) (width .1524))
  (fp_line (start -3.81 -4.60248) (end -2.5019 -4.60248) (layer F.CrtYd) (width .1524))
  (fp_line (start -2.5019 -4.60248) (end -2.5019 -5.1562) (layer F.CrtYd) (width .1524))
  (fp_line (start -2.5019 -5.1562) (end 2.5019 -5.1562) (layer F.CrtYd) (width .1524))
  (fp_line (start 2.5019 -5.1562) (end 2.5019 -4.60248) (layer F.CrtYd) (width .1524))
  (fp_line (start 2.5019 -4.60248) (end 3.81 -4.60248) (layer F.CrtYd) (width .1524))
  (fp_line (start 3.81 -4.60248) (end 3.81 4.60248) (layer F.CrtYd) (width .1524))
  (fp_line (start 3.81 4.60248) (end 2.5019 4.60248) (layer F.CrtYd) (width .1524))
  (fp_line (start 2.5019 4.60248) (end 2.5019 5.1562) (layer F.CrtYd) (width .1524))
  (fp_line (start 2.5019 5.1562) (end -2.5019 5.1562) (layer F.CrtYd) (width .1524))
  (fp_line (start -2.5019 5.1562) (end -2.5019 4.60248) (layer F.CrtYd) (width .1524))
  (fp_line (start -2.5019 4.60248) (end -3.81 4.60248) (layer F.CrtYd) (width .1524))
  (fp_arc (start 0 -4.9022) (end .3048 -4.9022) (angle 180)(layer F.Fab) (width .1524))
  (pad 1 smd rect (at -2.8194 -4.22656) (size 1.4732 .3556) (layers F.Cu F.Paste F.Mask))
  (pad 2 smd rect (at -2.8194 -3.57632) (size 1.4732 .3556) (layers F.Cu F.Paste F.Mask))
  (pad 3 smd rect (at -2.8194 -2.92608) (size 1.4732 .3556) (layers F.Cu F.Paste F.Mask))
  (pad 4 smd rect (at -2.8194 -2.27584) (size 1.4732 .3556) (layers F.Cu F.Paste F.Mask))
  (pad 5 smd rect (at -2.8194 -1.6256) (size 1.4732 .3556) (layers F.Cu F.Paste F.Mask))
  (pad 6 smd rect (at -2.8194 -.97536) (size 1.4732 .3556) (layers F.Cu F.Paste F.Mask))
  (pad 7 smd rect (at -2.8194 -.32512) (size 1.4732 .3556) (layers F.Cu F.Paste F.Mask))
  (pad 8 smd rect (at -2.8194 .32512) (size 1.4732 .3556) (layers F.Cu F.Paste F.Mask))
  (pad 9 smd rect (at -2.8194 .97536) (size 1.4732 .3556) (layers F.Cu F.Paste F.Mask))
  (pad 10 smd rect (at -2.8194 1.6256) (size 1.4732 .3556) (layers F.Cu F.Paste F.Mask))
  (pad 11 smd rect (at -2.8194 2.27584) (size 1.4732 .3556) (layers F.Cu F.Paste F.Mask))
  (pad 12 smd rect (at -2.8194 2.92608) (size 1.4732 .3556) (layers F.Cu F.Paste F.Mask))
  (pad 13 smd rect (at -2.8194 3.57632) (size 1.4732 .3556) (layers F.Cu F.Paste F.Mask))
  (pad 14 smd rect (at -2.8194 4.22656) (size 1.4732 .3556) (layers F.Cu F.Paste F.Mask))
  (pad 15 smd rect (at 2.8194 4.22656) (size 1.4732 .3556) (layers F.Cu F.Paste F.Mask))
  (pad 16 smd rect (at 2.8194 3.57632) (size 1.4732 .3556) (layers F.Cu F.Paste F.Mask))
  (pad 17 smd rect (at 2.8194 2.92608) (size 1.4732 .3556) (layers F.Cu F.Paste F.Mask))
  (pad 18 smd rect (at 2.8194 2.27584) (size 1.4732 .3556) (layers F.Cu F.Paste F.Mask))
  (pad 19 smd rect (at 2.8194 1.6256) (size 1.4732 .3556) (layers F.Cu F.Paste F.Mask))
  (pad 20 smd rect (at 2.8194 .97536) (size 1.4732 .3556) (layers F.Cu F.Paste F.Mask))
  (pad 21 smd rect (at 2.8194 .32512) (size 1.4732 .3556) (layers F.Cu F.Paste F.Mask))
  (pad 22 smd rect (at 2.8194 -.32512) (size 1.4732 .3556) (layers F.Cu F.Paste F.Mask))
  (pad 23 smd rect (at 2.8194 -.97536) (size 1.4732 .3556) (layers F.Cu F.Paste F.Mask))
  (pad 24 smd rect (at 2.8194 -1.6256) (size 1.4732 .3556) (layers F.Cu F.Paste F.Mask))
  (pad 25 smd rect (at 2.8194 -2.27584) (size 1.4732 .3556) (layers F.Cu F.Paste F.Mask))
  (pad 26 smd rect (at 2.8194 -2.92608) (size 1.4732 .3556) (layers F.Cu F.Paste F.Mask))
  (pad 27 smd rect (at 2.8194 -3.57632) (size 1.4732 .3556) (layers F.Cu F.Paste F.Mask))
  (pad 28 smd rect (at 2.8194 -4.22656) (size 1.4732 .3556) (layers F.Cu F.Paste F.Mask))
  (pad EPAD smd rect (at 0 0) (size 2.7432 4.7498) (layers F.Cu F.Paste F.Mask))
)
